Data transformation and manipulation using dplyr
…
In the code above, we only display the first six observations of Jan10 dataframe.

Comparison

R provides several expressions for comparison such as: >, > =, <, <=, ! = (Not equal), and == (equal). We can use this expression to filter observations, for example we want to create a dataframe containing flights in January the 1st and the 2nd, as follows

filter(flights,month==1, day<=2)

## # A tibble: 1,785 x 19
##     year month   day dep_time sched_dep_time dep_delay arr_time
##    <int> <int> <int>    <int>          <int>     <dbl>    <int>
##  1  2013     1     1      517            515         2      830
##  2  2013     1     1      533            529         4      850
##  3  2013     1     1      542            540         2      923
##  4  2013     1     1      544            545        -1     1004
##  5  2013     1     1      554            600        -6      812
##  6  2013     1     1      554            558        -4      740
##  7  2013     1     1      555            600        -5      913
##  8  2013     1     1      557            600        -3      709
##  9  2013     1     1      557            600        -3      838
## 10  2013     1     1      558            600        -2      753
## # ... with 1,775 more rows, and 12 more variables: sched_arr_time <int>,
## #   arr_delay <dbl>, carrier <chr>, flight <int>, tailnum <chr>,
## #   origin <chr>, dest <chr>, air_time <dbl>, distance <dbl>, hour <dbl>,
## #   minute <dbl>, time_hour <dttm>
…
arrange(df, desc(x))

##    x
## 1  5
## 2  2
## 3 NA

Select columns with select()

We can select single or multiple columns of interest using select(). For instance, we only want to select year, month and day, then we can write the following code.

select(flights, year, month, day)

## # A tibble: 336,776 x 3
##     year month   day
##    <int> <int> <int>
##  1  2013     1     1
##  2  2013     1     1
##  3  2013     1     1
##  4  2013     1     1
##  5  2013     1     1
##  6  2013     1     1
##  7  2013     1     1
##  8  2013     1     1
##  9  2013     1     1
## 10  2013     1     1
## # ... with 336,766 more rows
…
Add a new variable with mutate()

If we want to add a new variable to an existing dataframe, we can use mutate(). This function will add a new variable at the end of the dataframe. For example we want to add the variable speed with the definitionspeed = distance / air_time * 60, then we can write

flights_sml <- select(flights, 
  distance, 
  air_time
)

mutate(flights_sml,
  speed = distance / air_time * 60
)

## # A tibble: 336,776 x 3
##    distance air_time speed
##       <dbl>    <dbl> <dbl>
##  1     1400      227  370.
##  2     1416      227  374.
##  3     1089      160  408.
##  4     1576      183  517.
##  5      762      116  394.
##  6      719      150  288.
##  7     1065      158  404.
##  8      229       53  259.
##  9      944      140  405.
## 10      733      138  319.
## # ... with 336,766 more rows

If we only want to display the newly created variable, we can use transmute():

transmute(flights,
  gain = dep_delay - arr_delay,
  hours = air_time / 60,
  gain_per_hour = gain / hours
)

## # A tibble: 336,776 x 3
##     gain hours gain_per_hour
##    <dbl> <dbl>         <dbl>
##  1    -9 3.78          -2.38
##  2   -16 3.78          -4.23
##  3   -31 2.67         -11.6 
##  4    17 3.05           5.57
##  5    19 1.93           9.83
##  6   -16 2.5           -6.4 
##  7   -24 2.63          -9.11
##  8    11 0.883         12.5 
##  9     5 2.33           2.14
## 10   -10 2.3           -4.35
## # ... with 336,766 more rows

Some functions that are often used to create new variables are:

Arithmetic functions: +, -,*,/,^. For example hours = air_time / 60.

Modular arithmetic: %/% (integer divisor) and %% (remainder), where x == y * (x %/% y) + (x %% y), this is useful for dividing integer into several pieces, such as the hour andminute calculations of dep_time.

    transmute(flights,
      dep_time,
      hour = dep_time %/% 100,
      minute = dep_time %% 100
    )

## # A tibble: 336,776 x 3
##    dep_time  hour minute
##       <int> <dbl>  <dbl>
##  1      517     5     17
##  2      533     5     33
##  3      542     5     42
##  4      544     5     44
##  5      554     5     54
##  6      554     5     54
##  7      555     5     55
##  8      557     5     57
##  9      557     5     57
## 10      558     5     58
## # ... with 336,766 more rows
…
summarise() functions to encapsulate dataframes into a single row. For example, we want to calculate the average of departure delays as follows:

summarise(flights, delay = mean(dep_delay, na.rm = TRUE))

## # A tibble: 1 x 1
##   delay
##   <dbl>
## 1  12.6

summarise() is usually paired with group_by(). This is done to make a summary of each group that has been collected by group_by(). For example, we want to calculate the average delay per date, then

by_day <- group_by(flights, year, month, day)
summarise(by_day, delay = mean(dep_delay, na.rm = TRUE))

## # A tibble: 365 x 4
## # Groups:   year, month [12]
##     year month   day delay
##    <int> <int> <int> <dbl>
##  1  2013     1     1 11.5 
##  2  2013     1     2 13.9 
##  3  2013     1     3 11.0 
##  4  2013     1     4  8.95
##  5  2013     1     5  5.73
##  6  2013     1     6  7.15
##  7  2013     1     7  5.42
##  8  2013     1     8  2.55
##  9  2013     1     9  2.28
## 10  2013     1    10  2.84
## # ... with 355 more rows
…
Ranking: Minimum: min(x), Maximum: max(x), quantile: quantile (x).

Position: first(x), nth(x, 2), last(x).

Ungrouping

Ungrouping can be done using ungroup ().

daily <- flights %>% group_by(year, month, day) 

# Summary flight per day
(per_day   <- summarise(daily, flights = n()))

## # A tibble: 365 x 4
## # Groups:   year, month [12]
##     year month   day flights
##    <int> <int> <int>   <int>
##  1  2013     1     1     842
##  2  2013     1     2     943
##  3  2013     1     3     914
##  4  2013     1     4     915
##  5  2013     1     5     720
##  6  2013     1     6     832
##  7  2013     1     7     933
##  8  2013     1     8     899
##  9  2013     1     9     902
## 10  2013     1    10     932
## # ... with 355 more rows
…
